{
  "content": [
    {
      "id": "21000025170000000126",
      "publishDate": "2024-10-28T01:03:02.767Z",
      "noticeStatus": "PUBLISHED",
      "biddForm": {
        "code": "EA",
        "name": "Электронный аукцион"
      },
      "biddType": {
        "code": "ZK",
        "name": "Аренда и продажа земельных участков"
      },
      "signedData": {
        "fileId": "671ee2aad2543a5055ed97ac",
        "signatureId": "671ee2bc05a863501baa5598",
        "fileName": "Извещение о торгах.json",
        "fileSize": 19131,
        "uploadDate": "2024-10-28T01:02:34.208+00:00",
        "hash": "ab569a18c6391a64abf5aab8d87b02a1c3c89801bdc59c1a02a890d88e5ca3bb"
      },
      "noticeNumber": "21000025170000000126",
      "version": 1,
      "procedureName": "Проведение открытого аукциона в электронной форме на право заключения договора аренды земельного участка с кадастровым номером 28:08:011143:325",
      "bidderOrg": {
        "name": "МУНИЦИПАЛЬНОЕ КАЗЕННОЕ УЧРЕЖДЕНИЕ ОТДЕЛ ИМУЩЕСТВЕННЫХ И ЗЕМЕЛЬНЫХ ОТНОШЕНИЙ АДМИНИСТРАЦИИ АРХАРИНСКОГО МУНИЦИПАЛЬНОГО ОКРУГА АМУРСКОЙ ОБЛАСТИ"
      },
      "biddStartTime": "2024-10-28T23:00:00Z",
      "biddEndTime": "2024-11-27T08:00:00Z",
      "biddReviewDate": "2024-11-28T00:00:00Z",
      "auctionStartDate": "2024-11-29T01:00:00Z",
      "etpCode": "ETP_RTS",
      "lots": [
        {
          "lotNumber": 1,
          "lotStatus": "PUBLISHED",
          "lotName": "Земельный участок с кадастровым номером 28:08:011104:313",
          "priceMin": 1522.87,
          "hasAppeals": false,
          "isStopped": false,
          "attributes": [
            {
              "code": "DA_participationFee_EA(ZK)",
              "fullName": "Размер взимаемой с победителя аукциона или иных лиц, с которыми заключается договор, платы оператору электронной площадки (размер устанавливается в соответствии с постановлением Правительства РФ от 10.05.2018 № 564)",
              "value": "Размер платы Оператору ЭП за участие в аукционе, взимаемой с победителя аукциона, а также иных лиц, с которым договор аренды земельного участка заключается в соответствии с п. 13,14,20 и 25 ст.39.12 ЗК РФ установлен в соответствии с Регламентом Оператора ЭП и Инструкциями Претендента/Арендатора, размещенными на электронной площадке и размещен по адресу в информационно-телекоммуникационной сети «Интернет»: https://www.rts-tender.ru/tariffs/platform-property-sales-tariffs ",
              "attributeType": "Text(500)",
              "group": {
                "code": "NL250",
                "name": "5.3 Лот_основная_информация",
                "displayGroupType": "LOT"
              },
              "sortOrder": 1
            },
            {
              "code": "DA_contractSignPeriod__EA(ZK)",
              "fullName": "Срок заключения договора",
              "value": "Не ранее чем через 10 дней со дня подписания протокола (рассм. заявок или итогов аукциона)",
              "attributeType": "Text(100)",
              "group": {
                "code": "NL250",
                "name": "5.3 Лот_основная_информация",
                "displayGroupType": "LOT"
              },
              "sortOrder": 2
            },
            {
              "code": "DA_contractType_EA(ZK)",
              "fullName": "Вид договора",
              "value": {
                "code": "договор_аренды_земельного_участка_Select",
                "name": "договор аренды земельного участка"
              },
              "attributeType": "Select",
              "group": {
                "code": "NL250",
                "name": "5.3 Лот_основная_информация",
                "displayGroupType": "LOT"
              },
              "sortOrder": 3
            },
            {
              "code": "DA_forSmallBusiness_EA(ZK)",
              "fullName": "Только для МСП",
              "attributeType": "Checker",
              "group": {
                "code": "NL250",
                "name": "5.3 Лот_основная_информация",
                "displayGroupType": "LOT"
              },
              "sortOrder": 4
            },
            {
              "code": "DA_contractDate_EA(ZK)",
              "fullName": "Срок аренды",
              "value": "10 лет",
              "attributeType": "Text(100)",
              "group": {
                "code": "NL250",
                "name": "5.3 Лот_основная_информация",
                "displayGroupType": "LOT"
              },
              "sortOrder": 5
            },
            {
              "code": "DA_landPrivilege_EA(ZK)",
              "fullName": "Льгота по арендной плате",
              "value": "Льготы по арендной плате в отношении земельного участка – не имеется.",
              "attributeType": "Text(500)",
              "group": {
                "code": "NL250",
                "name": "5.3 Лот_основная_информация",
                "displayGroupType": "LOT"
              },
              "sortOrder": 6
            },
            {
              "code": "DA_landRights_EA(ZK)",
              "fullName": "Права на земельный участок",
              "value": "Земельный участок относится к землям, государственная собственность на которые не разграничена.",
              "attributeType": "Text(500)",
              "group": {
                "code": "NL250",
                "name": "5.3 Лот_основная_информация",
                "displayGroupType": "LOT"
              },
              "sortOrder": 7
            },
            {
              "code": "DA_landRestrictions_EA(ZK)",
              "fullName": "Ограничения прав на земельный участок",
              "value": "Сведения об ограничениях права на объект недвижимости, обременениях данного объекта, не зарегистрированных в реестре прав, ограничений прав и обременений недвижимого имущества: указаны в прилагаемой выписке из ЕГРН.",
              "attributeType": "Text(500)",
              "group": {
                "code": "NL250",
                "name": "5.3 Лот_основная_информация",
                "displayGroupType": "LOT"
              },
              "sortOrder": 8
            },
            {
              "code": "DA_constructionParametersMax_EA(ZK)",
              "fullName": "Максимально допустимые параметры разрешенного строительства объекта капитального строительства (при необходимости)",
              "value": "Согласно Извещения о проведении аукциона",
              "attributeType": "Text(1000)",
              "group": {
                "code": "NL250",
                "name": "5.3 Лот_основная_информация",
                "displayGroupType": "LOT"
              },
              "sortOrder": 9
            },
            {
              "code": "DA_constructionParametersMin_EA(ZK)",
              "fullName": "Минимально допустимые параметры разрешенного строительства объекта капитального строительства (при необходимости)",
              "value": "Согласно Извещения о проведении аукциона",
              "attributeType": "Text(1000)",
              "group": {
                "code": "NL250",
                "name": "5.3 Лот_основная_информация",
                "displayGroupType": "LOT"
              },
              "sortOrder": 10
            },
            {
              "code": "DA_connectionETSN_EA(ZK)",
              "fullName": "Возможность подключения (технологического присоединения) объектов капитального строительства к сетям инженерно-технического обеспечения (за исключением сетей электроснабжения) ",
              "value": "Согласно Извещения о проведении аукциона",
              "attributeType": "Text(500)",
              "group": {
                "code": "NL250",
                "name": "5.3 Лот_основная_информация",
                "displayGroupType": "LOT"
              },
              "sortOrder": 11
            },
            {
              "code": "DA_demolition_EA(ZK)",
              "fullName": "Информация об обязательствах по сносу здания, сооружения, объекта незавершенного строительства, которые расположены на земельном участке",
              "value": "Обязательства по сносу здания, сооружения, объекта незавершенного строительства, которые расположены на земельном участке и в отношении которых принято решение о сносе самовольной постройки в срок, не превышающий двенадцати месяцев – не имеется.",
              "attributeType": "Text(500)",
              "group": {
                "code": "NL250",
                "name": "5.3 Лот_основная_информация",
                "displayGroupType": "LOT"
              },
              "sortOrder": 16
            },
            {
              "code": "DA_bringing_EA(ZK)",
              "fullName": "Информация об обязательствах по приведению в соответствие с установленными требованиями здания, сооружения, объекта незавершенного строительства, которые расположены на земельном участке",
              "value": "Обязательства по приведению в соответствие с установленными требованиями здания, сооружения, объекта незавершенного строительства, которые расположены на земельном участке и в отношении которых принято решение о сносе самовольной постройки или ее приведении в соответствие с установленными требованиями, в срок, не превышающий трех лет – не имеется.",
              "attributeType": "Text(500)",
              "group": {
                "code": "NL250",
                "name": "5.3 Лот_основная_информация",
                "displayGroupType": "LOT"
              },
              "sortOrder": 17
            },
            {
              "code": "DA_depositTimeAndRules_EA(ZK)",
              "fullName": "Срок и порядок внесения задатка",
              "value": "Задаток вносится единым платежом. В платежном документе заявитель, помимо назначения платежа, должен указать дату проведения аукциона, номер лота. \nВнесение задатка третьими лицами не допускается.\nЗаявитель обеспечивает поступление задатка на указанные реквизиты не позднее даты рассмотрения заявок участников (не позднее 12 часов 00 минут время местное).\nПредставление документов, подтверждающих внесение задатка, признается заключением соглашения о задатке.",
              "attributeType": "Text(500)",
              "group": {
                "code": "NL255",
                "name": "5.4.2 Лот_информация_о_задатке_дин",
                "displayGroupType": "LOT"
              },
              "sortOrder": 1
            },
            {
              "code": "DA_depositRefund_EA(ZK)",
              "fullName": "Порядок возврата задатка",
              "value": "- отозвавшим заявки до дня окончания срока приема заявок на участие в аукционе – в течение 3 (трех) рабочих дней со дня поступления уведомления об отзыве заявки;\n- отозвавшим заявки позднее даты окончания срока приема заявок на участие в аукционе – в течение 3 (трех) рабочих дней со дня подписания протокола о результатах аукциона;\n- не допущенным к участию в аукционе – в течение 3 (трех) рабочих дней со дня оформления протокола рассмотрения заявок; ",
              "attributeType": "Text(500)",
              "group": {
                "code": "NL255",
                "name": "5.4.2 Лот_информация_о_задатке_дин",
                "displayGroupType": "LOT"
              },
              "sortOrder": 2
            }
          ],
          "isAnnulled": false,
          "lotVat": {
            "code": "notAssessedVAT",
            "name": "НДС не облагается"
          }
        }
      ],
      "timezoneOffset": "540",
      "timezoneOffsetAbberviation": "МСК+6",
      "hasAppeals": false,
      "firstVersionPublicationDate": "2024-10-28T01:03:02.767Z",
      "attributes": [
        {
          "code": "DA_tradingFeatures_EA(ZK)",
          "fullName": "Торги проводятся с учетом особенностей в соответствии с 161-ФЗ от 24.07.2008 «О содействии развитию жилищного строительства»",
          "value": false,
          "attributeType": "Checker",
          "group": {
            "code": "N250",
            "name": "1.2 Извещение_основные_сведения",
            "displayGroupType": "NOTICE"
          },
          "sortOrder": 1
        },
        {
          "code": "DA_participantsRequirements_EA(ZK)",
          "fullName": "Требования к участникам",
          "value": "Участником конкурсов или аукционов может быть любое юридическое лицо независимо от организационно-правовой формы, формы собственности, места нахождения, а также места происхождения капитала или любое физическое лицо, в том числе индивидуальный предприниматель, претендующее на заключение договора.\nУчастники электронного аукциона должны, иметь квалифицированную электронную подпись, оформленную в соответствии с требованиями действующего законодательства и прошедшие регистрацию на электронной площадке в соответствии с регламентом электронной площадки (далее – заявители).",
          "attributeType": "Text(1000)",
          "group": {
            "code": "N550",
            "name": "7.2 Извещение_требования_к_заявкам",
            "displayGroupType": "NOTICE"
          },
          "sortOrder": 1
        },
        {
          "code": "DA_documentsListings_EA(ZK)",
          "fullName": "Перечень документов",
          "value": "Заявка на участие в электронном аукционе с указанием банковских реквизитов счета для возврата задатка направляется оператору электронной площадки РТС-тендер в форме электронного документа с приложением документов:\nа) копия документа, удостоверяющего личность заявителя и его представителя (копия всех листов паспорта);\nб) документ, подтверждающий полномочия представителя заявителя, в случае, если заявление подается представителем заявителя;\nв) документ, подтверждающий внесение задатка в установлен",
          "attributeType": "Text(500)",
          "group": {
            "code": "N550",
            "name": "7.2 Извещение_требования_к_заявкам",
            "displayGroupType": "NOTICE"
          },
          "sortOrder": 2
        },
        {
          "code": "DA_documentsRequirements_EA(ZK)",
          "fullName": "Требования к документам",
          "value": "Заявка на участие в электронном аукционе, а также прилагаемые к ней документы подписываются усиленной квалифицированной электронной подписью заявителя. Заявка и все прилагаемые к заявке документы должны быть в доступном для прочтения формате.",
          "attributeType": "Text(1000)",
          "group": {
            "code": "N550",
            "name": "7.2 Извещение_требования_к_заявкам",
            "displayGroupType": "NOTICE"
          },
          "sortOrder": 3
        },
        {
          "code": "DA_biddingProcedure_EA(ZK)",
          "fullName": "Порядок проведения аукциона",
          "value": "Аукцион проводится в порядке, установленном статьями 39.11, 39.12, 39.13 Земельного кодекса Российской Федерации.",
          "attributeType": "Text(500)",
          "group": {
            "code": "N650",
            "name": "8.2 Извещение_условия_проведения_процедуры",
            "displayGroupType": "NOTICE"
          },
          "sortOrder": 1
        },
        {
          "code": "DA_refusalTerm_EA(ZK)",
          "fullName": "Срок отказа организатора от проведения процедуры торгов",
          "value": "Извещение об отказе в проведении аукциона размещается на официальном сайте организатором аукциона в течение трех дней со дня принятия данного решения. Организатор аукциона в течение трех дней со дня принятия решения об отказе в проведении аукциона обязан известить участников аукциона об отказе в проведении аукциона и возвратить его участникам внесенные задатки.",
          "attributeType": "Text(500)",
          "group": {
            "code": "N650",
            "name": "8.2 Извещение_условия_проведения_процедуры",
            "displayGroupType": "NOTICE"
          },
          "sortOrder": 2
        }
      ],
      "isAnnulled": false,
      "npaHintCode": "hint1_ZK"
    }
  ],
  "pageable": {
    "sort": {
      "unsorted": false,
      "sorted": true,
      "empty": false
    },
    "pageNumber": 5,
    "pageSize": 1,
    "offset": 5,
    "paged": true,
    "unpaged": false
  },
  "categoryFacet": [],
  "totalPages": 5141,
  "totalElements": 5141,
  "last": false,
  "numberOfElements": 1,
  "first": false,
  "size": 1,
  "number": 5,
  "sort": {
    "unsorted": false,
    "sorted": true,
    "empty": false
  },
  "empty": false
}